{
"settings": {
    "border_off": true,
    "navButtonText": "",
    "navButtonText_last": ""
},
"questions": [
    {
        "qType": "mc",
        "customHeading": "",
        "qText": "Oppgavetype: 'mc'<br>Settings: default",
        "options": [
            {
                "option": "Galt",
                "correct": false
            },
            {
                "option": "Galt",
                "correct": false
            },
            {
                "option": "Riktig",
                "correct": true
            }
        ],
        "standard_feedback_on": true,
        "correct_feedback": "",
        "incorrect_feedback": "",
        "partlycorrect_feedback": "",
        "common_feedback": "<br>Score: @score poeng av @totalscore mulige",
        "qButton_first": "",
        "qButton_second": "",
        "checkboxOverride": false,
        "score":1
    }
    
]
}