{
  /*
	 // Place your snippets for HTML here. Each snippet is defined under a snippet name and has a prefix, body and 
	 // description. The prefix is what is used to trigger the snippet and the body will be expanded and inserted. Possible variables are:
	 // $1, $2 for tab stops, ${id} and ${id:label} and ${1:label} for variables. Variables with the same id are connected.
	 // Example:
	 "Print to console": {
		"prefix": "log",
		"body": [
			"console.log('$1');",
			"$2"
		],
		"description": "Log output to console"
	}
*/
  /* ***************************************************** */
  /* Spa-learning */
  /* ***************************************************** */
  "ss-title": {
    "prefix": "ss-title [ttt]",
    "body": [
      "<!-- title [ttt] -->",
      "<div class=\"row${2: topmargin-${3:standard}}\">",
      "  <div class=\"col-md-8 col-md-offset-2\">",
      "    <div class=\"section-title text-center\">",
      " ",
      "      <h${1:2}>",
      "        ${5:Title} ",
      "      </h${1:2}> ",
      " ",
      "      <h${1:2} class=\"ingress\">",
      "         ${6:Ingress}",
      "      </h${1:2}>",
      " ",
      "      ${4:<span class=\"section-line\"></span>}",
      "    </div><!-- //.section-title -->",
      "  </div><!-- //.col -->",
      "</div><!-- //.row -->",
      "<!-- // title -->"
    ]
  },
  "ss-info": {
    "prefix": "ss-info [inf]",
    "body": [
      "<!-- info [inf] -->",
      "<div class=\"infobox\">",
      "  <div class=\"icon\"><i class=\"fa fa-info-circle\"></i></div>",
      "  <div class=\"panel\">",
      " ",
      "    <h1>",
      "      ${1:Title}",
      "    </h1>",
      " ",
      "    <p>",
      "      ${2:Text}",
      "    </p>",
      " ",
      "  </div><!-- // .panel -->",
      "</div><!-- // .infobox -->",
      "<!--// info -->"
    ]
  },
  "ss-info-example": {
    "prefix": "ss-info-example [exa]",
    "body": [
      "<!-- info-example [exa] -->",
      "<div class=\"infobox example\">",
      "  <div class=\"icon\"><i class=\"fa fa-thumb-tack\"></i></div>",
      "  <div class=\"panel\">",
      " ",
      "    <h1>",
      "      ${1:Title}",
      "    </h1>",
      " ",
      "    <p>",
      "      ${2:Text}",
      "    </p>",
      " ",
      "  </div><!-- // .panel -->",
      "</div><!-- // .infobox -->",
      "<!--// info-example -->"
    ]
  },
  "ss-content-box": {
    "prefix": "ss-content-box [cb]",
    "body": [
      "<!-- content-box [cb] -->",
      "<div class=\"content-boxes clearfix\">",
      "  <div class=\"content-boxes-text\">",
      " ",
      "    <h${1:4}>",
      "      ${2:Title}",
      "    </h${1:4}>",
      " ",
      "    <p>",
      "      ${3:Text}",
      "   </p>",
      " ",
      "  </div><!-- //.content-boxes-text -->",
      "</div><!-- //.content-boxes -->",
      "<!-- // content-box -->",
      " "
    ]
  },
  "ss-panel-simple": {
    "prefix": "ss-panel-simple [ppp]",
    "body": [
      "<!-- panel-simple [ppp] -->",
      "<div class=\"panel panel-simple\">",
      " ",
      "  <div class=\"panel-heading text-center\">",
      "    ${1:Title}",
      "  </div>",
      " ",
      "  <div class=\"panel-body\">",
      " ",
      "    <p>",
      "      ${2:Text}",
      "    </p>",
      " ",
      "  </div>",
      "</div><!-- //.panel -->",
      "<!--// panel-simple -->",
      " "
    ]
  },
  "ss-list-table": {
    "prefix": "ss-list-table [ppp2]",
    "body": [
      "<!-- list-table [ppp2] -->",
      "<div class=\"row topmargin-${1:standard}\">",
      "  <div class=\"list-table\">",
      "    <div class=\"col-md-8 col-md-offset-2 list-table-wrapper\">",
      "      <div class=\"list-table-column\">",
      "        <div class=\"list-table-title text-center\">",
      "          ${2:Title}",
      "        </div><!-- //.list-table-title -->",
      "        ul.item-list>li*${3: x + esc + tab}",
      "      </div><!-- //.list-table-column -->",
      "    </div><!-- //.col -->",
      "  </div><!-- //.List-table -->",
      "</div><!-- //.row -->",
      "<!-- // list-table -->"
    ]
  },
  "ss-section": {
    "prefix": "ss-section [sect]",
    "body": [
      "<!-- section [sect] -->",
      "<section id=\"sectionid${1:1}\" class=\"section${2: section2}\">",
      "  <div class=\"section-inner\">",
      "    <div class=\"container section-container\">",
      "",
      "      <!-- title -->",
      "      <div class=\"row\">",
      "        <div class=\"col-md-8 col-md-offset-2\">",
      "          <div class=\"section-title text-center\">",
      " ",
      "            <h1 class=\"sectionType\">",
      "               ${4:Title}",
      "            </h1>",
      " ",
      "            <h1 class=\"ingress\">",
      "               ${5:Ingress}",
      "            </h1>",
      " ",
      "${6:            <span class=\"section-line\"></span>}",
      "          </div><!-- //.section-title -->",
      "        </div><!-- //.col -->",
      "      </div><!-- //.row -->",
      "      <!-- // title -->",
      "",
      "",
      "",
      "",
      "",
      "    </div><!-- //.section-container -->",
      "  </div><!-- //.section-inner -->",
      "</section><!-- // section  -->"
    ]
  },
  "ss-quiz": {
    "prefix": "ss-quiz [qvizz]",
    "body": [
      "<!-- quiz [quizz] -->",
      "<quiz data=\"'${1:mal}'\"></quiz>",
      "<!-- // quiz -->"
    ]
  },
  "ss-video": {
    "prefix": "ss-video [vvv]",
    "body": [
      "<!-- video [vvv] -->",
      "<div class=\"vimeovideo\">",
      "  <div class=\"embed-responsive embed-responsive-16by9\">",
      "    <iframe class=\"embed-responsive-item\" src=\"https://player.vimeo.com/video/${2:122075813}\" webkitallowfullscreen mozallowfullscreen allowfullscreen></iframe>",
      "  </div><!-- // .embed-responsive -->",
      "</div><!-- // .vimeovideo -->",
      "<!-- // video -->"
    ]
  },
  "ss-video-two-col": {
    "prefix": "ss-video-two-col [vvv2]",
    "body": [
      "<!-- video-two-col [vvv2] -->",
      "<div class=\"row topmargin-${1:standard}\">",
      "  <div class=\"col-md-6 col-md-push-6\">",
      "    <div class=\"videobox\">",
      " ",
      "       <h3>",
      "          ${2:Title}",
      "       </h3>",
      " ",
      "       <p>",
      "          ${3:Text}",
      "       </p>",
      " ",
      "    </div><!-- //.videobox -->",
      "  </div><!-- // .col -->",
      "  <div class=\"col-md-6 col-md-pull-6\">",
      "    <div class=\"vimeovideo\">",
      "      <div class=\"embed-responsive embed-responsive-16by9\">",
      "        <iframe class=\"embed-responsive-item\" src=\"https://player.vimeo.com/video/${4:122075813}\" webkitallowfullscreen mozallowfullscreen allowfullscreen></iframe>",
      "      </div><!--// .embed-responsive -->",
      "    </div><!--// .vimeovideo -->",
      "  </div><!-- //.col -->",
      "</div><!-- //.row -->",
      "<!-- // video-two-col -->"
    ]
  },
  "ss-divider-line": {
    "prefix": "ss-divider-line [dvl]",
    "body": [
      "<!-- divider-line [dvl] -->",
      "<div class=\"row\">",
      "  <div class=\"text-center vmargin-standard\">",
      "    <span class=\"section-line${2: full}\"></span>",
      "  </div><!-- //.text-center -->",
      "</div><!-- //.row -->",
      "<!-- // divider-line -->"
    ]
  },
  "ss-accordion-body": {
    "prefix": "ss-accordion-body [ac]",
    "body": [
      "<!-- accordion [ac] -->",
      "<div class=\"accordion accordion-rj\">",
      "  <div class=\"panel-group\" id=\"accordion${1:1}\">",
      " ",
      "  ${2:<!-- delete + esc + insert item: 'accordion-item [acv]' -->}",
      " ",
      " ",
      " ",
      " ",
      "  </div><!-- //.panel-group -->",
      "</div><!-- //.accordion -->",
      "<!-- // accordion -->"
    ]
  },
  "ss-accordion-item": {
    "prefix": "ss-accordion-item [acv]",
    "body": [
      "<!-- accordion-item-${2:itemnumber} [acv] -->",
      "<div class=\"panel\">",
      "  <div class=\"panel-heading\">",
      "    <div class=\"panel-title\">",
      "      <a class=\"accordion-toggle collapsed\" data-toggle=\"collapse\" data-parent=\"#accordion${1:1}\" href=\"#accordion${1:1}-item-${2:itemnumber}\">",
      "        ${3:Element_${2:itemnumber}}",
      "      </a>",
      "    </div><!--// .panel-title -->",
      "  </div><!-- //.panel-heading -->",
      " ",
      "  <div id=\"accordion${1:1}-item-${2:itemnumber}\" class=\"panel-collapse collapse\" style=\"height: 0px;\">",
      "    <div class=\"panel-body\">",
      " ",
      "      <p>",
      "         ${4:Text}",
      "      </p>",
      " ",
      "    </div><!-- //.panel-body -->",
      "  </div><!-- //.panel-collapse -->",
      "</div><!-- //.panel -->",
      "<!--##### // accordion-item #####-->",
      " "
    ]
  },
  "ss-image": {
    "prefix": "ss-image [spaimg]",
    "body": [
      "${1:<!-- image [spaimg] -->}",
      "  <img src=\"img/${2:standard/}${3:strd_768x512.jpg}\" alt=\"\" class=\"img-responsive img-rounded center-block\" />",
      "${1:<!-- // image -->}"
    ]
  },
  "ss-quote": {
    "prefix": "ss-quote [qqq]",
    "body": [
      "<!-- quote [qqq] -->",
      "<blockquote>",
      "  &laquo;${1:${TM_SELECTED_TEXT}}&raquo;",
      "</blockquote>",
      "<!-- // quote -->",
      " "
    ]
  },
  "ss-scrollbutton": {
    "prefix": "ss-scrollbutton [scr]",
    "body": [
      "<!-- scrollbutton [scr] -->",
      "  <div data-aos=\"fade-up\" class=\"row topmargin-standard\">",
      "    <div class=\"page-scroll text-center\">",
      "      <a href=\"#section${1:2}\" class=\"btn btn-md btn-rj roundarrow inverted\"><i class=\"fa fa-angle-down\"></i></a>",
      "    </div><!-- //.page-scroll -->",
      "  </div><!-- //.row -->",
      "<!-- // scrollbutton -->"
    ]
  },
  "ss-readmore": {
    "prefix": "ss-readmore [rdm]",
    "body": [
      "<!-- readmore [rdm] -->",
      "<readmore button-text=\"'${1:readmore, les mer [rdm]}'\">",
      "  ${2:${TM_SELECTED_TEXT}}",
      "</readmore>",
      "<!--// readmore -->"
    ]
  },
  "ss-anim-fade": {
    "prefix": "ss-anim-fade",
    "body": [
      "data-aos=\"fade-${1:left | right | up | down}\""
    ]
  },
  "ss-anim-flip": {
    "prefix": "ss-anim-flip",
    "body": [
      "data-aos=\"flip-${1:left | right | up | down}\""
    ]
  },
  "ss-anim-slide": {
    "prefix": "ss-anim-slide",
    "body": [
      "data-aos=\"slide-${1:left | right | up | down}\""
    ]
  },
  "ss-anim-zoom-in": {
    "prefix": "ss-anim-zoom-in",
    "body": [
      "data-aos=\"zoom-in${1:-left | -right | -up | -down}\""
    ]
  },
  "ss-topmargin": {
    "prefix": "ss-topmargin",
    "body": [
      "topmargin-${1:large | small | none | }${2:standard}"
    ]
  },
  "ss-ingress": {
    "prefix": "ss-ingress",
    "body": [
      "<h${1:2} class=\"ingress\">",
      "   ${2:Ingress}",
      "</h${1:2}>"
    ]
  },

    "ss-testimonial-item-regular": {
    "prefix": "ss-testimonial-item-regular",
    "body": [
      "<!-- testimonial-item -->",
      "<div class=\"testimonial-item\">",
      "  <div class=\"testimonial-content\">",
      "    <div class=\"testimonial-content-container\">",
      " ",
      "      <h1>Testimonials [tst]</h1>",
      " ",
      "      <p>Esse consequat ad ea dolor cillum id minim. Nostrud dolore qui reprehenderit adipisicing exercitation cupidatat pariatur aliqua proident adipisicing veniam cillum qui. </p>",
      " ",
      "    </div><!-- .testimonial-content-container -->",
      "  </div><!-- //.testimonial-content -->",
      " ",
      "  <div class=\"testimonial-avatar clearfix\">",
      "    <img src=\"img/standard/testimonial-1.jpg\" alt=\"\" class=\"img-circle img-thumbnail\" />",
      "  </div><!-- //.testimonial-avatar -->",
      " ",
      "</div><!-- //.testimonial-item -->",
      "<!-- // testimonial-item -->"
    ]
  },

  "ss-testimonial-item-r": {
    "prefix": "ss-testimonial-item-r",
    "body": [
      "<!-- testimonial-item -->",
      "<div class=\"testimonial-item right\">",
      " ",
      "  <div class=\"testimonial-content\">",
      "    <div class=\"testimonial-content-container\">",
      " ",
      "      <h1>",
      "        Right [tst_msg]",
      "      </h1>",
      " ",
      "      <p>",
      "        Esse consequat ad ea dolor cillum id minim. Nostrud dolore qui reprehenderit adipisicing exercitation cupidatat pariatur aliqua proident adipisicing veniam cillum qui. ",
      "      </p>",
      " ",
      "    </div><!-- .testimonial-content-container -->",
      "  </div><!-- .testimonial-content -->",
      " ",
      "  <div class=\"testimonial-avatar clearfix\">",
      "    <img src=\"img/standard/testimonial-1.jpg\" alt=\"\" class=\"img-circle img-thumbnail\" />",
      "  </div><!-- //.testimonial-avatar -->",
      " ",
      "</div><!-- //.testimonial-item -->",
      "<!-- // testimonial-item -->"
    ]
  },

   "ss-testimonial-item-l": {
    "prefix": "ss-testimonial-item-l",
    "body": [
      "<!-- testimonial-item -->",
      "<div class=\"testimonial-item left\">",
      " ",
      "  <div class=\"testimonial-avatar clearfix\">",
      "    <img src=\"img/standard/testimonial-2.jpg\" alt=\"\" class=\"img-circle img-thumbnail\" />",
      "  </div><!-- //.testimonial-avatar -->",
      " ",
      "  <div class=\"testimonial-content\">",
      "    <div class=\"testimonial-content-container\">",
      " ",
      "      <h1>",
      "        Left [tst_msg]",
      "      </h1>",
      " ",
      "      <p>",
      "        Esse consequat ad ea dolor cillum id minim. Nostrud dolore qui reprehenderit adipisicing exercitation cupidatat pariatur aliqua proident adipisicing veniam cillum qui. ",
      "      </p>",
      " ",
      "    </div><!-- .testimonial-content-container -->",
      "  </div><!-- .testimonial-content -->",
      " ",
      "</div><!-- //.testimonial-item -->",
      "<!-- // testimonial-item -->"
    ]
  },


  /* SPA-learning - rows & cols */
  "ss-row-standard": {
    "prefix": "ss-row-standard",
    "body": [
      "<div class=\"row${1: topmargin-${2:standard}}\">",
      "  <div class=\"col-md-${3:8}${4: col-md-offset-${5:2}}\">",
      "    ",
      "    ${6:${TM_SELECTED_TEXT}}",
      "    ",
      "  </div><!-- //.col -->",
      "</div><!-- //.row -->"
    ]
  },

   "ss-col-standard": {
    "prefix": "ss-col-standard",
    "body": [
      "<div class=\"col-md-${1:8}\">",
      "  ",
      "  ${2:${TM_SELECTED_TEXT}}",
      "  ",
      "</div><!-- //.col -->"
    ]
  },








  /*******************************************************/
  /* Commenting  
  /*******************************************************/
  "aa-comment-large": {
    "prefix": "aa-comment-large",
    "body": [
      "<!--------------------------------------------------------------->",
      "<!--     ${1:Large comment }     -->",
      "<!--------------------------------------------------------------->",
      "",
      "$2"
    ]
  },
  "aa-comment-divide": {
    "prefix": "aa-comment-divide",
    "body": [
      "<!--------------------------------------------------------------->"
    ]
  },
  "aa-comment-small": {
    "prefix": "aa-comment-small",
    "body": [
      "<!-- ${1:Small comment} -->"
    ]
  }
}
/*******************************************************/
/* Prebens */
/*******************************************************/
/*******************************************************/
/* Eivinds */
/*******************************************************/
// ${1:1}, $2 for tab stops, ${id} and ${id:label} and ${1:label} for variables. Variables with the same id are connected.
